Florida_web
…
Comparación de Medias

library(agricolae)
data 

# A tibble: 150 × 18
   riego    geno  block bloque spad_29 spad_83 rwc_84 op_84 leafdw stemdw rootdw
   <chr>    <chr> <dbl> <chr>    <dbl>   <dbl>  <dbl> <dbl>  <dbl>  <dbl>  <dbl>
 1 sequia   G01       2 II        56.3    41.1   61.5 -2.43  13.3   14.9    3.83
 2 sequia   G02       4 IV        52.7    47.9   63.2 -3.03   9.42   8.63   2.1 
 3 irrigado G01       3 III       49.2    41.6   67.7 -2.5   18.2   24.2    3.16
 4 sequia   G02       1 I         55.5    44.2   64.9 -2.4    8.84   6.58   2   
 5 irrigado G03       2 II        58.2    32.6   74.5 -2.27  14.6   12.6    1.83
 6 irrigado G04       5 V         43.5    37.8   74.0 -2.37  19.8   17.5    2.83
 7 irrigado G01       1 I         57.4    42.5   72.7 -1.77  15.0   15.3    2.28
 8 irrigado G05       4 IV        56.1    35.9   72.8 -2.33  19.9   14.6    3.65
 9 sequia   G06       2 II        61      57.5   59.8 -3.23  19.9   21.2    4.04
10 sequia   G05       1 I         60.3    41.8   50.8 -2.87  12.3   11.1    4.17
# ℹ 140 more rows
# ℹ 7 more variables: tubdw <dbl>, biomdw <dbl>, hi <dbl>, ttrans <dbl>,
#   wue <dbl>, twue <dbl>, lfa <dbl>

data

# A tibble: 150 × 18
   riego    geno  block bloque spad_29 spad_83 rwc_84 op_84 leafdw stemdw rootdw
   <chr>    <chr> <dbl> <chr>    <dbl>   <dbl>  <dbl> <dbl>  <dbl>  <dbl>  <dbl>
 1 sequia   G01       2 II        56.3    41.1   61.5 -2.43  13.3   14.9    3.83
 2 sequia   G02       4 IV        52.7    47.9   63.2 -3.03   9.42   8.63   2.1 
 3 irrigado G01       3 III       49.2    41.6   67.7 -2.5   18.2   24.2    3.16
 4 sequia   G02       1 I         55.5    44.2   64.9 -2.4    8.84   6.58   2   
 5 irrigado G03       2 II        58.2    32.6   74.5 -2.27  14.6   12.6    1.83
 6 irrigado G04       5 V         43.5    37.8   74.0 -2.37  19.8   17.5    2.83
 7 irrigado G01       1 I         57.4    42.5   72.7 -1.77  15.0   15.3    2.28
 8 irrigado G05       4 IV        56.1    35.9   72.8 -2.33  19.9   14.6    3.65
 9 sequia   G06       2 II        61      57.5   59.8 -3.23  19.9   21.2    4.04
10 sequia   G05       1 I         60.3    41.8   50.8 -2.87  12.3   11.1    4.17
# ℹ 140 more rows
# ℹ 7 more variables: tubdw <dbl>, biomdw <dbl>, hi <dbl>, ttrans <dbl>,
#   wue <dbl>, twue <dbl>, lfa <dbl>
…
